{
  "name": "Excel converter",
  "version": "0.0.1",
  "description": "Convierte un archivo excel a la base de datos MongoDB",
  "author": "leifer33@gmail.com",
  "path": "excelImport",
  "features": {},
  "icon": "faFileInvoice"
}
